<?xml version="1.0" encoding="UTF-8"?>
<svg width="24px" height="22px" viewBox="0 0 24 22" version="1.1" xmlns="http://www.w3.org/2000/svg" xmlns:xlink="http://www.w3.org/1999/xlink">
    <!-- Generator: Sketch 61 (89581) - https://sketch.com -->
    <title>service4</title>
    <desc>Created with Sketch.</desc>
    <g id="Final" stroke="none" stroke-width="1" fill="none" fill-rule="evenodd" stroke-linecap="square">
        <g id="Minimal3-Copy-25" transform="translate(-793.000000, -7442.000000)" stroke="#FFFFFF" stroke-width="2">
            <g id="Group" transform="translate(135.000000, 6588.000000)">
                <g id="service-4" transform="translate(633.000000, 828.000000)">
                    <g id="Business-Feature-/-Style-02">
                        <g id="Icon">
                            <g id="service4" transform="translate(27.000000, 28.000000)">
                                <g id="ranking">
                                    <polyline id="Shape" points="4 10 7 4 14 9 20 0"></polyline>
                                    <line x1="0" y1="18" x2="2.246" y2="13.508" id="Shape"></line>
                                    <polyline id="Shape" points="0 10 4 10 14 15 20 11"></polyline>
                                </g>
                            </g>
                        </g>
                    </g>
                </g>
            </g>
        </g>
    </g>
</svg>