<?xml version="1.0" encoding="UTF-8"?>
<svg width="40px" height="40px" viewBox="0 0 40 40" version="1.1" xmlns="http://www.w3.org/2000/svg" xmlns:xlink="http://www.w3.org/1999/xlink">
    <!-- Generator: Sketch 61.2 (89653) - https://sketch.com -->
    <title>Combined Shape</title>
    <desc>Created with Sketch.</desc>
    <g id="Final" stroke="none" stroke-width="1" fill="none" fill-rule="evenodd" fill-opacity="0.2">
        <g id="Minimal3-Copy-33" transform="translate(-468.000000, -533.000000)" fill="#FFFFFF">
            <path d="M488,533 C499.045695,533 508,541.954305 508,553 C508,564.045695 499.045695,573 488,573 C476.954305,573 468,564.045695 468,553 C468,541.954305 476.954305,533 488,533 Z M486.446268,547.622426 L477.62768,558.764459 C480.041121,555.930339 482.861209,553.58508 486.906709,553.461381 C491.329224,553.60699 494.771136,555.979636 497.764459,558.560425 C494.136548,554.911534 490.860577,551.2631 487.232209,547.614666 C486.858842,547.208879 486.692901,547.384157 486.446268,547.622426 Z" id="Combined-Shape"></path>
        </g>
    </g>
</svg>