<?xml version="1.0" encoding="UTF-8"?>
<svg width="62px" height="62px" viewBox="0 0 62 62" version="1.1" xmlns="http://www.w3.org/2000/svg" xmlns:xlink="http://www.w3.org/1999/xlink">
    <!-- Generator: Sketch 61 (89581) - https://sketch.com -->
    <title>logo</title>
    <desc>Created with Sketch.</desc>
    <g id="Final" stroke="none" stroke-width="1" fill="none" fill-rule="evenodd">
        <g id="Minimal3-Copy-25" transform="translate(-8.000000, -8.000000)" fill-rule="nonzero">
            <g id="Group">
                <g id="logo">
                    <g transform="translate(8.000000, 8.000000)">
                        <path d="M30.8370946,-1.32160949e-14 C47.8650974,-1.32160949e-14 61.6737328,13.7918088 61.6737328,30.7985 C61.6737328,47.8051912 47.8650974,61.5965441 30.8370946,61.5965441 C13.8086353,61.5965441 -1.25552901e-13,47.8047353 -1.25552901e-13,30.7985 C-1.25552901e-13,13.7918088 13.8086353,-1.32160949e-14 30.8370946,-1.32160949e-14 Z" id="_243839824" fill="#ED5C37"></path>
                        <path d="M46.1296607,18.6674706 C49.2549987,18.8593971 51.0926811,21.3020147 49.98076,22.60675 C46.1301172,25.9935 39.048239,31.2033235 38.9318434,33.5479265 C38.8455736,35.2880294 46.889656,40.3533382 50.5166366,43.9762353 C51.8157036,45.5526765 49.1299305,46.80225 47.4693521,47.0903676 L47.4693521,47.0903676 L16.4471144,47.089966 C15.1543997,47.0583687 14.3348543,46.5013916 13.9884781,45.4186471 L13.9884781,45.4186471 L13.9884781,22.0113676 C14.2906504,19.9722059 15.6271466,18.9660735 17.671146,18.6674706 L17.671146,18.6674706 Z M36.2072716,22.6413971 C32.5583813,26.2693088 28.9099474,29.5452794 25.2615135,33.1736471 C24.8557262,33.5470147 25.0310044,33.7129559 25.2692732,33.9595882 L36.4113064,42.7781765 C33.5771858,40.3647353 31.231927,37.5446471 31.1082281,33.4991471 C31.2538368,29.0766324 33.6264828,25.6347206 36.2072716,22.6413971 Z" id="Combined-Shape" fill="#FEFEFE"></path>
                    </g>
                </g>
            </g>
        </g>
    </g>
</svg>